{
  "name": "competitions",
  "coreJs": [
    "bower_components/store-js/store.js",
    "bower_components/gsap/src/uncompressed/plugins/CSSPlugin.js",
    "bower_components/gsap/src/uncompressed/TimelineMax.js",
    "bower_components/gsap/src/uncompressed/TweenMax.js",
    "bower_components/gsap/src/uncompressed/easing/EasePack.js",
    "bower_components/lodash/dist/lodash.js",
    "bower_components/bxslider-4/dist/jquery.bxslider.js",
    "app/components/shared/index.js",
    "app/components/shared/jquery.fullPage.js",
    "app/components/shared/hotjar.js",
    "app/components/shared/ga.js",    
    "app/components/competitions/index.js"
  ],
  "less": [
    "app/components/competitions/index.less"
  ]
}
